<svg width="17" height="17" viewBox="0 0 16 16" fill="none" xmlns="http://www.w3.org/2000/svg">
<path d="M10.5487 1.00202C7.23829 -0.333991 3.40953 0.801622 1.41992 3.69076C-0.536256 6.54649 -0.185147 10.3374 2.22245 12.8091C2.05526 13.5272 1.72087 14.3956 1.05209 14.8298C0.935056 14.9133 0.884897 15.0469 0.901617 15.1805C0.935056 15.3141 1.03537 15.4143 1.18585 15.4477C1.21929 15.4477 1.47008 15.4811 1.87134 15.4811C2.62372 15.4811 3.87768 15.3475 4.96444 14.5793C5.81713 14.8966 6.71999 15.0636 7.65627 15.0636H7.67299C11.251 15.0636 14.3441 12.592 15.0463 9.18512C15.7485 5.77828 13.8592 2.33804 10.5487 1.00202ZM5.03132 5.74488H8.80992C8.99383 5.74488 9.14431 5.89518 9.14431 6.07888C9.14431 6.26259 8.99383 6.41289 8.80992 6.41289H5.03132C4.84741 6.41289 4.69693 6.26259 4.69693 6.07888C4.69693 5.89518 4.84741 5.74488 5.03132 5.74488ZM11.0838 9.43562H5.03132C4.84741 9.43562 4.69693 9.28532 4.69693 9.10162C4.69693 8.91792 4.84741 8.76761 5.03132 8.76761H11.0838C11.2677 8.76761 11.4182 8.91792 11.4182 9.10162C11.4182 9.28532 11.2677 9.43562 11.0838 9.43562Z" fill="#AEECFF"/>
</svg>
