<svg height="32" viewBox="0 0 31 32" fill="none" xmlns="http://www.w3.org/2000/svg">
	<path d="M18.7398 1.04427C16.5937 -0.189122 13.9558 -0.197446 11.802 1.02238L3.91807 5.48755C1.73082 6.72632 0.37571 9.04274 0.367777 11.5564L0.339891 20.3931C0.331958 22.9068 1.67242 25.2317 3.85181 26.4843L11.7074 30.9991C13.8535 32.2325 16.4914 32.2408 18.6452 31.021L26.5291 26.5558C28.7164 25.3171 30.0715 23.0006 30.0794 20.487L30.1073 11.6503C30.1152 9.13659 28.7748 6.81166 26.5954 5.55911L18.7398 1.04427Z" fill="#FF603C" />
	<path d="M11 15.2702C11 15.2702 11.1592 17.7029 12.2507 18.3918C13.5013 19.1884 16.321 19.2314 17.5035 18.3488C18.7314 17.4446 19.3454 15.4424 18.7996 14C17.5035 14.4736 16.0936 15.0764 14.7065 15.2487C13.4559 15.3994 12.2279 15.4209 11 15.2702Z" stroke="black" stroke-width="1.5" stroke-miterlimit="10" stroke-linecap="round" stroke-linejoin="round" />
	<path d="M7 14C7 13.6452 7 13.3226 7 13" stroke="black" stroke-width="1.5" stroke-miterlimit="10" stroke-linecap="round" stroke-linejoin="round" />
	<path d="M23 14C23 13.6579 23 13.3158 23 13" stroke="black" stroke-width="1.5" stroke-miterlimit="10" stroke-linecap="round" stroke-linejoin="round" />
</svg>
