<svg width="16" height="16" viewBox="0 0 16 16" fill="none" xmlns="http://www.w3.org/2000/svg">
<rect width="15.5906" height="15.5906" rx="7.7953" fill="#FF603C"/>
<path d="M7.11561 12.0472L2.83496 8.74364L4.05489 7.30825L6.6324 9.29782L10.4035 3.54321L12.0476 4.52061L7.11561 12.0472Z" fill="white"/>
</svg>
