<svg width="19" height="15" viewBox="0 0 19 15" fill="none" xmlns="http://www.w3.org/2000/svg">
<path class="rocket" d="M18.6074 1.32145C18.5769 1.46518 18.5155 1.59963 18.428 1.71447L9.57069 13.4866C9.47964 13.6069 9.36289 13.7027 9.22997 13.7663C9.09704 13.8299 8.95172 13.8595 8.80588 13.8527C8.66003 13.8458 8.5178 13.8027 8.39079 13.7268C8.26379 13.6509 8.15562 13.5445 8.07512 13.4162L4.08812 6.99432L18.6074 1.32145ZM17.5904 0.138672H1.52982C1.36338 0.138591 1.20003 0.185982 1.05709 0.275816C0.914154 0.365651 0.79696 0.494579 0.717945 0.648921C0.638931 0.803264 0.601042 0.977264 0.608299 1.15246C0.615556 1.32766 0.667688 1.49752 0.759164 1.64402L3.29635 5.72256L17.5904 0.138672ZM3.03242 7.92497L0.921037 13.6053C0.886205 13.6805 0.876536 13.7659 0.893601 13.8476C0.910666 13.9293 0.953463 14.0025 1.01503 14.0554C1.0766 14.1082 1.15333 14.1376 1.23273 14.1386C1.31214 14.1397 1.38956 14.1125 1.4524 14.0613L4.39779 12.022C4.59717 11.8853 4.73764 11.6715 4.78897 11.4268C4.84031 11.182 4.7984 10.9258 4.67227 10.7132L3.03242 7.92497Z" fill="#313336"/>
</svg>
