<svg width="174" height="48" viewBox="0 0 174 48" fill="none" xmlns="http://www.w3.org/2000/svg">
	<path d="M29.2078 26.8971C23.5526 25.65 19.9917 20.0605 21.2365 14.4154C26.2115 -8.14417 48.6036 -22.4447 71.1632 -17.4697C75.7345 -16.4616 80.0695 -14.7228 84.0274 -12.295C88.9574 -9.26682 90.5172 -2.82101 87.489 2.10902C84.4505 7.0368 77.999 8.57385 73.0849 5.57061C71.11 4.36296 68.9538 3.49069 66.6528 2.98328C55.373 0.495792 44.177 7.64603 41.6895 18.9258C40.4446 24.5709 34.8631 28.1443 29.2078 26.8971Z" fill="url(#paint0_linear_342_5056)" />
	<path d="M90.5794 40.4284C90.0476 40.3111 89.5147 40.1507 88.9907 39.9493C83.6135 37.8306 80.9639 31.7557 83.0849 26.3682C92.0023 3.68067 111.867 -8.49619 132.525 -3.94069C155.084 1.03428 169.385 23.4264 164.41 45.986C163.165 51.631 157.583 55.2044 151.928 53.9573C146.273 52.7102 142.712 47.1207 143.957 41.4756C146.444 30.1958 139.294 18.9998 128.014 16.5123C115.425 13.7361 106.614 23.7392 102.564 34.0311C100.657 38.8866 95.5188 41.5176 90.5794 40.4284Z" fill="url(#paint1_linear_342_5056)" />
	<path d="M72.5759 122.011C70.3567 121.521 68.2875 120.304 66.7647 118.456C61.2267 111.765 12.9476 52.0035 21.2873 14.186C22.5322 8.541 28.1137 4.96761 33.769 6.21473C39.4242 7.46186 42.9851 13.0514 41.7402 18.6964C37.5118 37.8711 59.8365 75.2766 77.7358 98.6126C103.794 84.949 139.786 60.3821 144.005 41.2484C145.25 35.6034 150.832 32.03 156.487 33.2771C162.142 34.5242 165.703 40.1138 164.458 45.7588C156.118 83.5763 87.1815 117.489 79.3433 121.23C77.1845 122.266 74.795 122.5 72.5759 122.011Z" fill="url(#paint2_linear_342_5056)" />
	<defs>
		<linearGradient id="paint0_linear_342_5056" x1="60.8361" y1="-19.7471" x2="49.5601" y2="31.3853" gradientUnits="userSpaceOnUse">
			<stop stop-color="#FFBEA9" />
			<stop offset="0.744792" stop-color="#DC75E8" />
		</linearGradient>
		<linearGradient id="paint1_linear_342_5056" x1="132.527" y1="-3.94026" x2="121.251" y2="47.1921" gradientUnits="userSpaceOnUse">
			<stop stop-color="#FFBEA9" />
			<stop offset="0.744792" stop-color="#DC75E8" />
		</linearGradient>
		<linearGradient id="paint2_linear_342_5056" x1="95.1279" y1="19.7459" x2="72.5759" y2="122.011" gradientUnits="userSpaceOnUse">
			<stop stop-color="#FFBEA9" />
			<stop offset="0.744792" stop-color="#DC75E8" />
		</linearGradient>
	</defs>
</svg>
