<svg width="18" height="18" viewBox="0 0 18 18" fill="none" xmlns="http://www.w3.org/2000/svg">
<path d="M16.7273 3.07341H12.1194L11.5816 1.2646C11.3127 0.36247 10.3054 -0.184276 9.39844 0.0845408L1.76424 2.35353C0.839023 2.63146 0.310326 3.60649 0.58379 4.53596L3.77876 15.2704C3.99753 16.0085 4.6903 16.5233 5.46056 16.5233C5.6292 16.5233 5.79783 16.5006 5.96191 16.4504L7.07856 16.1178V16.2272C7.07856 16.7102 7.47052 17.102 7.95364 17.102H16.7227C17.2058 17.102 17.5978 16.7102 17.5978 16.2272V3.95276C17.6024 3.46525 17.2104 3.07341 16.7273 3.07341ZM7.95364 3.07341C7.47052 3.07341 7.07856 3.46525 7.07856 3.94821V14.2862L5.46056 14.7692L2.26559 4.03477L9.89979 1.76578L10.2918 3.07341H7.95364Z" fill="#F9D530"/>
</svg>
