<svg height="14" viewBox="0 0 9 14" fill="none" xmlns="http://www.w3.org/2000/svg">
	<path class="chevron-right" d="M1.78906 1.60352L7.84638 7.18369L1.78906 12.7639" stroke="#4D5158" stroke-width="2" />
</svg>
