<svg width="21" height="23" viewBox="0 0 23 23" fill="none" xmlns="http://www.w3.org/2000/svg">
	<path d="M23 5.98507V6.50635C23 6.68485 22.9633 6.86134 22.8921 7.02435C22.821 7.18737 22.7171 7.33325 22.5873 7.4525C22.4574 7.57175 22.3044 7.66171 22.1382 7.71651C21.9721 7.77132 21.7965 7.78975 21.623 7.7706H21.5967C21.2911 7.73804 21.0082 7.59074 20.8027 7.35721C20.5972 7.12368 20.4837 6.82051 20.4842 6.50635V5.98507C20.4842 5.0806 20.1327 4.21318 19.5072 3.57362C18.8817 2.93407 18.0334 2.57477 17.1487 2.57477H16.9319C16.0473 2.57477 15.199 2.93407 14.5735 3.57362C13.9479 4.21318 13.5965 5.0806 13.5965 5.98507V7.88752C12.7603 7.79739 11.9288 7.72675 11.0807 7.68534V5.9802C11.082 4.39497 11.6982 2.875 12.7943 1.75384C13.8904 0.632689 15.3768 0.00193554 16.9272 4.95756e-07H17.144C17.9129 -0.000319478 18.6743 0.154253 19.3848 0.454887C20.0953 0.755522 20.7409 1.19633 21.2847 1.75212C21.8285 2.30792 22.2599 2.96782 22.5542 3.69412C22.8485 4.42042 23 5.19889 23 5.98507ZM17.9183 11.69V20.8491C17.9186 21.1615 17.8121 21.4642 17.6172 21.7049C17.4223 21.9455 17.1512 22.109 16.8509 22.1669L16.0552 22.3204C13.7162 22.7726 11.3408 23.0002 8.96033 23C6.57902 23.0003 4.20291 22.7728 1.86306 22.3204L1.06733 22.1669C0.767048 22.109 0.496015 21.9455 0.301114 21.7049C0.106212 21.4642 -0.000299885 21.1615 6.34189e-07 20.8491V11.69C-0.000299885 11.3776 0.106212 11.0748 0.301114 10.8342C0.496015 10.5935 0.767048 10.4301 1.06733 10.3722L1.18407 10.3502C6.32267 9.35627 11.598 9.35627 16.7366 10.3502L16.8533 10.3722C17.1532 10.4306 17.4237 10.5943 17.6181 10.8349C17.8125 11.0755 17.9187 11.3779 17.9183 11.69ZM12.2433 14.1259L11.5905 13.4585C11.4829 13.352 11.3395 13.2916 11.1898 13.2898C11.04 13.288 10.8953 13.3449 10.7853 13.4487L8.09312 15.8847L6.84235 14.8835C6.72947 14.7931 6.58809 14.7481 6.44496 14.7571C6.30183 14.766 6.16689 14.8284 6.06567 14.9322L5.41527 15.5997C5.311 15.7071 5.25016 15.8507 5.24486 16.002C5.23956 16.1532 5.2902 16.3009 5.38668 16.4157L7.67381 19.1196C7.7288 19.1829 7.7963 19.2336 7.87187 19.2684C7.94743 19.3031 8.02934 19.3211 8.11218 19.3211C8.19503 19.3211 8.27693 19.3031 8.3525 19.2684C8.42806 19.2336 8.49556 19.1829 8.55055 19.1196L12.2624 14.959C12.3641 14.845 12.4189 14.6953 12.4154 14.541C12.4118 14.3867 12.3502 14.2398 12.2433 14.1308V14.1259Z" fill="#17CA80" />
</svg>
