<svg width="18" height="17" viewBox="0 0 18 17" fill="none" xmlns="http://www.w3.org/2000/svg">
        <path d="M16.5407 8.40897C16.5407 8.76334 16.5154 9.11594 16.4683 9.46676C16.4755 9.41892 16.481 9.37285 16.4882 9.32501C16.3922 10.0054 16.2075 10.6698 15.934 11.3024C15.9521 11.2599 15.9702 11.2173 15.9883 11.1748C15.8326 11.5345 15.6496 11.8818 15.4413 12.2149C15.3381 12.3797 15.2276 12.5427 15.1117 12.6986C15.0845 12.7358 15.0556 12.773 15.0266 12.8102C15.0121 12.8279 14.9976 12.8474 14.9831 12.8651C14.9252 12.9413 15.07 12.7571 15.0103 12.8315C14.9469 12.9112 14.8817 12.9892 14.8147 13.0654C14.5593 13.3613 14.2822 13.6377 13.9851 13.8928C13.9145 13.9548 13.8421 14.0133 13.7678 14.0735C13.7316 14.1037 13.6935 14.132 13.6573 14.1603C13.6265 14.1852 13.5486 14.2401 13.6917 14.1338C13.6664 14.1533 13.641 14.171 13.6157 14.1905C13.4563 14.3074 13.2933 14.4173 13.1266 14.5218C12.7499 14.7575 12.3533 14.9612 11.9421 15.1313C11.9856 15.1136 12.029 15.0959 12.0725 15.0782C11.4259 15.3439 10.7467 15.5264 10.0512 15.6203C10.1001 15.6133 10.1472 15.6079 10.1961 15.6009C9.47888 15.6948 8.75078 15.6948 8.03354 15.6009C8.08244 15.6079 8.12954 15.6133 8.17844 15.6203C7.48294 15.5264 6.80374 15.3457 6.15714 15.0782C6.20061 15.0959 6.24408 15.1136 6.28755 15.1313C5.91987 14.9789 5.56488 14.8 5.22437 14.5962C5.05593 14.4952 4.8893 14.3871 4.72991 14.2737C4.69188 14.2472 4.65384 14.2188 4.61581 14.1905C4.5977 14.1763 4.57777 14.1621 4.55966 14.1479C4.48178 14.0912 4.67015 14.233 4.59407 14.1745C4.51257 14.1125 4.43288 14.0487 4.355 13.9832C4.05253 13.7333 3.76998 13.4622 3.50917 13.1717C3.44577 13.1026 3.386 13.0317 3.32442 12.959C3.29363 12.9236 3.26465 12.8864 3.23568 12.851C3.21032 12.8208 3.15417 12.7447 3.26284 12.8846C3.24292 12.8598 3.22481 12.835 3.20488 12.8102C3.08535 12.6543 2.97305 12.4948 2.86619 12.3318C2.6253 11.9633 2.41701 11.5752 2.24314 11.173C2.26125 11.2156 2.27936 11.2581 2.29747 11.3006C2.02579 10.6681 1.83924 10.0036 1.74325 9.32324C1.75049 9.37108 1.75593 9.41715 1.76317 9.46499C1.66718 8.76334 1.66718 8.05106 1.76317 7.34942C1.75593 7.39726 1.75049 7.44332 1.74325 7.49116C1.83924 6.81078 2.02398 6.14634 2.29747 5.5138C2.27936 5.55632 2.26125 5.59884 2.24314 5.64137C2.3989 5.28169 2.58183 4.93441 2.79012 4.6013C2.89336 4.43652 3.00384 4.27351 3.11976 4.11759C3.14693 4.08038 3.17591 4.04317 3.20488 4.00596C3.21937 3.98825 3.23386 3.96876 3.24835 3.95104C3.30631 3.87485 3.16142 4.05912 3.22119 3.9847C3.28458 3.90497 3.34978 3.82701 3.4168 3.75082C3.67217 3.45492 3.94929 3.17852 4.24632 2.92337C4.31696 2.86136 4.38941 2.80289 4.46367 2.74265C4.49989 2.71253 4.53793 2.68418 4.57415 2.65583C4.60494 2.63102 4.68282 2.57609 4.53974 2.6824C4.5651 2.66291 4.59045 2.6452 4.61581 2.62571C4.77519 2.50876 4.9382 2.39891 5.10483 2.29437C5.48156 2.05872 5.87821 1.85496 6.28936 1.68486C6.24589 1.70258 6.20242 1.7203 6.15895 1.73802C6.80555 1.47224 7.48475 1.28974 8.18025 1.19584C8.13135 1.20292 8.08426 1.20824 8.03535 1.21533C8.75259 1.12142 9.48069 1.12142 10.1979 1.21533C10.149 1.20824 10.1019 1.20292 10.053 1.19584C10.7485 1.28974 11.4277 1.47047 12.0743 1.73802C12.0309 1.7203 11.9874 1.70258 11.9439 1.68486C12.3116 1.83724 12.6666 2.01619 13.0071 2.21996C13.1755 2.32095 13.3404 2.42903 13.5016 2.54243C13.5396 2.56901 13.5776 2.59736 13.6157 2.62571C13.6338 2.63988 13.6537 2.65406 13.6718 2.66823C13.7497 2.72493 13.5613 2.58318 13.6374 2.64165C13.7189 2.70367 13.7986 2.76745 13.8765 2.83301C14.1789 3.08284 14.4615 3.35393 14.7223 3.64451C14.7857 3.71361 14.8455 3.78449 14.907 3.85713C14.9378 3.89257 14.9668 3.92978 14.9958 3.96521C15.0211 3.99533 15.0773 4.07152 14.9686 3.93155C14.9885 3.95635 15.0067 3.98116 15.0266 4.00596C15.1461 4.16189 15.2584 4.32135 15.3653 4.48436C15.6062 4.8529 15.8145 5.24093 15.9883 5.64314C15.9702 5.60062 15.9521 5.55809 15.934 5.51557C16.2057 6.14811 16.3922 6.81255 16.4882 7.49294C16.481 7.4451 16.4755 7.39903 16.4683 7.35119C16.5154 7.70201 16.5407 8.05461 16.5407 8.40897C16.5407 8.68715 16.7907 8.95293 17.0841 8.94052C17.3775 8.92812 17.6275 8.70664 17.6275 8.40897C17.6257 7.54609 17.4916 6.67435 17.2181 5.85399C16.9537 5.06021 16.5715 4.30009 16.0771 3.61971C15.5591 2.9092 14.9469 2.29437 14.2405 1.76459C13.5649 1.25785 12.8115 0.866274 12.0146 0.579237C11.1905 0.281569 10.312 0.122103 9.4336 0.0884386C8.54792 0.0547737 7.64595 0.159312 6.79287 0.394966C5.9724 0.621761 5.17728 0.974356 4.46367 1.43326C3.7573 1.88685 3.11432 2.43966 2.5764 3.07752C2.00587 3.75436 1.55488 4.49676 1.21438 5.30826C0.881116 6.10205 0.692752 6.94544 0.625737 7.80123C0.556912 8.66589 0.636605 9.54826 0.844892 10.3917C1.04594 11.2049 1.38101 11.9969 1.82475 12.7128C2.26125 13.418 2.80823 14.0682 3.44034 14.6157C4.07426 15.1668 4.78787 15.6345 5.56125 15.9765C6.39803 16.3468 7.2674 16.5807 8.18025 16.6834C9.06955 16.7844 9.97515 16.7348 10.8518 16.5612C11.694 16.3946 12.5144 16.0899 13.2643 15.6806C13.9978 15.2801 14.677 14.7663 15.2566 14.1728C15.8416 13.5756 16.3415 12.8899 16.7201 12.1493C17.1058 11.391 17.3829 10.5795 17.5152 9.74139C17.584 9.30021 17.6257 8.85725 17.6275 8.40897C17.6275 8.1308 17.3775 7.86502 17.0841 7.87742C16.7889 7.88983 16.5407 8.11131 16.5407 8.40897Z" fill="#4D5158" />
        <path d="M12.4973 8.3714C12.4973 9.05888 12.452 9.74458 12.3597 10.425C12.3669 10.3771 12.3723 10.3311 12.3796 10.2832C12.2347 11.3251 11.9829 12.358 11.5645 13.3272C11.5827 13.2847 11.6008 13.2422 11.6189 13.1997C11.4197 13.6603 11.1842 14.1068 10.8908 14.5161C10.8582 14.5622 10.8256 14.6065 10.7912 14.6508C10.764 14.6862 10.6934 14.7713 10.8129 14.6242C10.793 14.6472 10.7749 14.672 10.7549 14.6951C10.6861 14.7784 10.6137 14.8599 10.5394 14.9378C10.4706 15.0105 10.3981 15.0813 10.3221 15.1487C10.2858 15.1806 10.2478 15.2125 10.2116 15.2444C10.1935 15.2603 10.1735 15.2745 10.1554 15.2886C10.0667 15.3595 10.2714 15.2054 10.1808 15.2709C10.0105 15.3932 9.83123 15.4995 9.63562 15.581C9.67909 15.5633 9.72256 15.5456 9.76603 15.5278C9.59215 15.5987 9.41103 15.6501 9.22448 15.6749C9.27338 15.6678 9.32047 15.6625 9.36937 15.6554C9.19912 15.6767 9.02887 15.6767 8.85862 15.6554C8.90752 15.6625 8.95461 15.6678 9.00351 15.6749C8.81696 15.6501 8.63584 15.6005 8.46196 15.5278C8.50543 15.5456 8.5489 15.5633 8.59237 15.581C8.42031 15.5084 8.2573 15.418 8.10516 15.3117C8.08523 15.2975 8.06712 15.2851 8.0472 15.2709C7.95845 15.2071 8.13595 15.34 8.08705 15.301C8.0472 15.2692 8.00735 15.2373 7.96751 15.2036C7.88962 15.1363 7.81355 15.0672 7.74111 14.9945C7.66504 14.9183 7.59259 14.8386 7.52376 14.7571C7.49116 14.7181 7.45856 14.6791 7.42777 14.6402C7.38068 14.5817 7.47848 14.7039 7.47486 14.7004C7.46762 14.6898 7.45856 14.6791 7.4495 14.6685C7.42777 14.6419 7.40785 14.6136 7.38792 14.5852C7.24665 14.3921 7.11624 14.1901 6.99851 13.9828C6.85362 13.7294 6.72683 13.4672 6.61092 13.2014C6.62903 13.2439 6.64714 13.2865 6.66525 13.329C6.24868 12.358 5.99511 11.3251 5.85021 10.285C5.85746 10.3328 5.86289 10.3789 5.87014 10.4267C5.72524 9.36009 5.69445 8.27927 5.77596 7.20554C5.79769 6.91141 5.83029 6.61729 5.87014 6.32493C5.86289 6.37277 5.85746 6.41884 5.85021 6.46668C5.99149 5.44965 6.23962 4.44147 6.64533 3.49354C6.62722 3.53607 6.60911 3.57859 6.59099 3.62112C6.78842 3.16398 7.02387 2.71925 7.31366 2.31173C7.34626 2.26743 7.37887 2.22137 7.41147 2.17884C7.42777 2.15758 7.44407 2.13632 7.46218 2.11328C7.34264 2.26921 7.42234 2.1629 7.45313 2.12746C7.52195 2.04418 7.59259 1.96445 7.66866 1.88649C7.7393 1.81207 7.81355 1.73943 7.89144 1.6721C7.92766 1.6402 7.96388 1.60831 8.00192 1.57819C8.02003 1.56224 8.03995 1.54807 8.05807 1.53389C8.14681 1.46302 7.95121 1.61185 8.02546 1.5587C8.19753 1.43467 8.37865 1.32659 8.57607 1.24509C8.5326 1.2628 8.48913 1.28052 8.44566 1.29824C8.61954 1.22737 8.80066 1.17598 8.98721 1.14941C8.93831 1.15649 8.89122 1.16181 8.84232 1.1689C9.02162 1.14586 9.20455 1.14586 9.38386 1.1689C9.33496 1.16181 9.28787 1.15649 9.23897 1.14941C9.42552 1.17598 9.60664 1.22559 9.78052 1.29824C9.73705 1.28052 9.69358 1.2628 9.65011 1.24509C9.82217 1.31773 9.98337 1.40809 10.1373 1.51263C10.1572 1.52681 10.1754 1.53921 10.1953 1.55338C10.284 1.61717 10.0957 1.47542 10.1554 1.52326C10.1971 1.55693 10.2406 1.59059 10.2822 1.62603C10.3583 1.68982 10.4307 1.75715 10.5014 1.82802C10.5793 1.90598 10.6535 1.98748 10.7242 2.07076C10.7586 2.11151 10.7894 2.15581 10.8256 2.19479C10.8292 2.19833 10.7332 2.07608 10.7785 2.13455C10.7875 2.14518 10.7948 2.15581 10.8038 2.16644C10.822 2.19124 10.8419 2.21605 10.86 2.24086C11.0013 2.43221 11.1299 2.63243 11.2476 2.83796C11.3925 3.09311 11.5211 3.35711 11.6388 3.62466C11.6207 3.58214 11.6026 3.53961 11.5845 3.49709C11.9902 4.44502 12.2383 5.45319 12.3796 6.47023C12.3723 6.42239 12.3669 6.37632 12.3597 6.32848C12.452 7.00178 12.4955 7.68748 12.4973 8.3714C12.4973 8.64958 12.7473 8.91536 13.0407 8.90295C13.3341 8.89055 13.584 8.66907 13.584 8.3714C13.5822 6.79624 13.3685 5.18387 12.8251 3.69553C12.3995 2.52789 11.771 1.36557 10.7314 0.617855C10.304 0.309556 9.79682 0.125285 9.26795 0.0863051C8.74994 0.0473247 8.22289 0.194387 7.77552 0.442444C7.26657 0.725937 6.86267 1.13877 6.5113 1.58882C6.11646 2.09557 5.82667 2.6661 5.57853 3.25257C4.97541 4.67536 4.7164 6.23989 4.65663 7.77252C4.59505 9.38135 4.76531 11.0292 5.23984 12.5742C5.44269 13.2369 5.70532 13.8907 6.04945 14.4984C6.33743 15.0069 6.69242 15.4995 7.13073 15.8946C7.52557 16.249 8.00011 16.5466 8.52717 16.6671C9.02887 16.7805 9.56317 16.7504 10.0413 16.5608C11.1588 16.1143 11.9123 15.0955 12.4122 14.0572C13.086 12.6575 13.4156 11.1231 13.5369 9.58688C13.5695 9.1829 13.584 8.77715 13.584 8.3714C13.584 8.09323 13.3341 7.82745 13.0407 7.83985C12.7454 7.85226 12.4973 8.07374 12.4973 8.3714Z" fill="#4D5158" />
        <path d="M8.57698 0.619859C8.57698 0.759834 8.57698 0.898037 8.57698 1.03801C8.57698 1.41718 8.57698 1.79636 8.57698 2.17376C8.57698 2.73189 8.57698 3.29001 8.57698 3.84637C8.57698 4.5303 8.57698 5.21245 8.57698 5.89638C8.57698 6.6441 8.57698 7.39358 8.57698 8.1413C8.57698 8.89433 8.57698 9.64558 8.57698 10.3986C8.57698 11.1038 8.57698 11.8072 8.57698 12.5124C8.57698 13.1077 8.57698 13.7031 8.57698 14.2984C8.57698 14.7254 8.57698 15.1542 8.57698 15.5812C8.57698 15.7832 8.57517 15.9852 8.57698 16.1872C8.57698 16.1961 8.57698 16.2049 8.57698 16.2138C8.57698 16.492 8.82692 16.7577 9.12034 16.7453C9.41556 16.7329 9.6637 16.5114 9.6637 16.2138C9.6637 16.0738 9.6637 15.9356 9.6637 15.7956C9.6637 15.4164 9.6637 15.0373 9.6637 14.6599C9.6637 14.1017 9.6637 13.5436 9.6637 12.9873C9.6637 12.3033 9.6637 11.6212 9.6637 10.9373C9.6637 10.1895 9.6637 9.44005 9.6637 8.69234C9.6637 7.93931 9.6637 7.18805 9.6637 6.43502C9.6637 5.72983 9.6637 5.02641 9.6637 4.32122C9.6637 3.72589 9.6637 3.13055 9.6637 2.53521C9.6637 2.1082 9.6637 1.67942 9.6637 1.2524C9.6637 1.05041 9.66551 0.848425 9.6637 0.646436C9.6637 0.637577 9.6637 0.628718 9.6637 0.619859C9.6637 0.341681 9.41375 0.0759055 9.12034 0.0883084C8.82692 0.100711 8.57698 0.32219 8.57698 0.619859Z" fill="#4D5158" />
        <path d="M1.14926 8.96526C1.29234 8.96526 1.43361 8.96526 1.5767 8.96526C1.96429 8.96526 2.35189 8.96526 2.73768 8.96526C3.3082 8.96526 3.87873 8.96526 4.44745 8.96526C5.14657 8.96526 5.84388 8.96526 6.54301 8.96526C7.30733 8.96526 8.07347 8.96526 8.8378 8.96526C9.60755 8.96526 10.3755 8.96526 11.1453 8.96526C11.8661 8.96526 12.5852 8.96526 13.306 8.96526C13.9146 8.96526 14.5231 8.96526 15.1317 8.96526C15.5682 8.96526 16.0065 8.96526 16.443 8.96526C16.6495 8.96526 16.856 8.96703 17.0624 8.96526C17.0715 8.96526 17.0806 8.96526 17.0896 8.96526C17.374 8.96526 17.6457 8.72074 17.633 8.43371C17.6203 8.1449 17.3939 7.90215 17.0896 7.90215C16.9465 7.90215 16.8053 7.90215 16.6622 7.90215C16.2746 7.90215 15.887 7.90215 15.5012 7.90215C14.9307 7.90215 14.3601 7.90215 13.7914 7.90215C13.0923 7.90215 12.395 7.90215 11.6959 7.90215C10.9315 7.90215 10.1654 7.90215 9.40108 7.90215C8.63132 7.90215 7.86337 7.90215 7.09361 7.90215C6.37275 7.90215 5.65371 7.90215 4.93285 7.90215C4.32429 7.90215 3.71572 7.90215 3.10716 7.90215C2.67066 7.90215 2.23235 7.90215 1.79585 7.90215C1.58938 7.90215 1.3829 7.90038 1.17642 7.90215C1.16737 7.90215 1.15831 7.90215 1.14926 7.90215C0.864897 7.90215 0.593217 8.14667 0.605896 8.43371C0.618574 8.72251 0.843163 8.96526 1.14926 8.96526Z" fill="#4D5158" />
        <path d="M2.51254 13.0756C2.63026 13.0756 2.74799 13.0756 2.86572 13.0756C3.1863 13.0756 3.5087 13.0756 3.82928 13.0756C4.302 13.0756 4.77472 13.0756 5.24564 13.0756C5.82522 13.0756 6.40299 13.0756 6.98258 13.0756C7.6165 13.0756 8.25042 13.0756 8.88615 13.0756C9.52731 13.0756 10.1667 13.0756 10.8078 13.0756C11.4019 13.0756 11.996 13.0756 12.59 13.0756C13.0954 13.0756 13.5989 13.0756 14.1042 13.0756C14.4665 13.0756 14.8305 13.0756 15.1927 13.0756C15.3648 13.0756 15.5369 13.0774 15.7089 13.0756C15.7162 13.0756 15.7234 13.0756 15.7307 13.0756C16.015 13.0756 16.2867 12.8311 16.274 12.5441C16.2613 12.2552 16.0349 12.0125 15.7307 12.0125C15.6129 12.0125 15.4952 12.0125 15.3775 12.0125C15.0569 12.0125 14.7345 12.0125 14.4139 12.0125C13.9412 12.0125 13.4685 12.0125 12.9976 12.0125C12.418 12.0125 11.8402 12.0125 11.2606 12.0125C10.6267 12.0125 9.99279 12.0125 9.35706 12.0125C8.71589 12.0125 8.07654 12.0125 7.43538 12.0125C6.8413 12.0125 6.24723 12.0125 5.65316 12.0125C5.14783 12.0125 4.64432 12.0125 4.13899 12.0125C3.77675 12.0125 3.4127 12.0125 3.05046 12.0125C2.8784 12.0125 2.70634 12.0107 2.53427 12.0125C2.52703 12.0125 2.51978 12.0125 2.51254 12.0125C2.22818 12.0125 1.9565 12.257 1.96918 12.5441C1.98186 12.8329 2.20826 13.0756 2.51254 13.0756Z" fill="#4D5158" />
        <path d="M2.51254 4.85612C2.63026 4.85612 2.74799 4.85612 2.86572 4.85612C3.1863 4.85612 3.5087 4.85612 3.82928 4.85612C4.302 4.85612 4.77472 4.85612 5.24564 4.85612C5.82522 4.85612 6.40299 4.85612 6.98258 4.85612C7.6165 4.85612 8.25042 4.85612 8.88615 4.85612C9.52731 4.85612 10.1667 4.85612 10.8078 4.85612C11.4019 4.85612 11.996 4.85612 12.59 4.85612C13.0954 4.85612 13.5989 4.85612 14.1042 4.85612C14.4665 4.85612 14.8305 4.85612 15.1927 4.85612C15.3648 4.85612 15.5369 4.8579 15.7089 4.85612C15.7162 4.85612 15.7234 4.85612 15.7307 4.85612C16.015 4.85612 16.2867 4.61161 16.274 4.32457C16.2613 4.03576 16.0349 3.79302 15.7307 3.79302C15.6129 3.79302 15.4952 3.79302 15.3775 3.79302C15.0569 3.79302 14.7345 3.79302 14.4139 3.79302C13.9412 3.79302 13.4685 3.79302 12.9976 3.79302C12.418 3.79302 11.8402 3.79302 11.2606 3.79302C10.6267 3.79302 9.99279 3.79302 9.35706 3.79302C8.71589 3.79302 8.07654 3.79302 7.43538 3.79302C6.8413 3.79302 6.24723 3.79302 5.65316 3.79302C5.14783 3.79302 4.64432 3.79302 4.13899 3.79302C3.77675 3.79302 3.4127 3.79302 3.05046 3.79302C2.8784 3.79302 2.70634 3.79125 2.53427 3.79302C2.52703 3.79302 2.51978 3.79302 2.51254 3.79302C2.22818 3.79302 1.9565 4.03754 1.96918 4.32457C1.98186 4.61161 2.20826 4.85612 2.51254 4.85612Z" fill="#4D5158" />
    </svg>