<svg height="14" viewBox="0 0 15 14" fill="none" xmlns="http://www.w3.org/2000/svg">
<path d="M6.96976 14L0 8.56141L1.98628 6.19835L6.18299 9.47376L12.3231 0L15 1.60908L6.96976 14Z" fill="white"/>
</svg>
