<svg width="25" height="15" viewBox="0 0 22 14" fill="none" xmlns="http://www.w3.org/2000/svg">
<path d="M8.0394 0.859375H1.21704C0.634647 0.859375 0.15625 1.38097 0.15625 2.01595V12.6519C0.15625 13.2869 0.634647 13.8084 1.21704 13.8084H8.0602C8.6426 13.8084 9.12099 13.2869 9.12099 12.6519V8.20701H6.41701V9.70375C6.41701 10.0439 6.06341 10.2253 5.81381 10.0439L2.73543 7.66274C2.52743 7.504 2.52743 7.16383 2.73543 6.9824L5.81381 4.60123C6.06341 4.39713 6.41701 4.60123 6.41701 4.94139V6.43813H9.10019V1.99327C9.10019 1.38097 8.6218 0.859375 8.0394 0.859375Z" fill="#EE93F8"/>
<path d="M19.9925 0.859375H13.1702C12.5878 0.859375 12.1094 1.38188 12.1094 2.01798V6.44792H14.7926V4.94856C14.7926 4.60779 15.1462 4.42605 15.3958 4.60779L18.4741 6.99315C18.6821 7.15217 18.6821 7.49294 18.4741 7.67468L15.3958 10.06C15.1462 10.2645 14.7926 10.06 14.7926 9.71927V8.2199H12.1094V12.6498C12.1094 13.2859 12.5878 13.8084 13.1702 13.8084H20.0133C20.5957 13.8084 21.0741 13.2859 21.0741 12.6498V1.99526C21.0533 1.38188 20.5749 0.859375 19.9925 0.859375Z" fill="#EE93F8"/>
</svg>
