<svg width="18" height="18" viewBox="0 0 18 18" fill="none" xmlns="http://www.w3.org/2000/svg">
	<path d="M5.8709 0H12.1287L13.0392 8.86992L12.1287 18H5.8709L4.82324 9.09141L5.8709 0Z" fill="#EEEEEE" />
	<path d="M0 0H5.87109V18H0V0Z" fill="#0052B4" />
	<path d="M12.1289 0H18V18H12.1289V0Z" fill="#D80027" />
</svg>
