<svg height="24" viewBox="0 0 192 24" fill="none" xmlns="http://www.w3.org/2000/svg">
<g clip-path="url(#clip0_1113_10708)">
<path d="M25.2204 23.2304H32.1959L35.9361 1.41105H28.9605L27.5838 9.22207H21.5338L22.9105 1.41105H15.935L12.1948 23.2304H19.1703L20.5777 15.0686H26.6277L25.2204 23.2304ZM39.8827 1.38766L37.7641 13.5251C37.5805 14.4684 37.4964 15.3882 37.4964 16.2535C37.4964 22.6848 43.011 23.6592 46.3305 23.6592C53.2831 23.6592 56.2737 21.305 57.3674 14.9517L59.7002 1.35648H52.7247L50.7361 12.7612C50.1012 16.3315 49.65 18.1946 47.0494 18.1946C45.3515 18.1946 44.5331 17.2747 44.5331 15.3805C44.5331 14.6477 44.6401 13.759 44.8543 12.6521L46.8735 1.34869H39.898V1.38766H39.8827ZM96.5664 23.2304H103.542L104.521 17.6099H107.81C113.883 17.6099 117.256 14.2579 117.256 8.1463C117.256 3.85102 114.342 1.38766 109.217 1.38766H100.307L96.5664 23.2304ZM107.443 12.2311H105.424L106.349 7.09392H108.231C109.768 7.09392 110.594 7.88125 110.594 9.30782C110.602 11.1164 109.408 12.2311 107.443 12.2311ZM130.809 0.927734C123.229 0.927734 118.694 5.9324 118.694 14.3359C118.694 20.1746 122.304 23.6904 128.346 23.6904C135.934 23.6904 140.469 18.6857 140.469 10.2822C140.492 4.41229 136.89 0.927734 130.809 0.927734ZM128.767 18.0387C126.962 18.0387 125.899 16.7135 125.899 14.4996C125.899 13.6577 125.975 12.9327 126.136 12.0908C126.664 9.22207 127.566 6.6028 130.404 6.6028C132.209 6.6028 133.272 7.92803 133.272 10.1419C133.272 10.9838 133.196 11.7088 133.035 12.5507C132.507 15.3882 131.612 18.0387 128.767 18.0387ZM164.738 23.2304H171.714L174.475 7.24982H179.73L180.739 1.41105H162.887L161.878 7.24982H167.446L164.738 23.2304ZM153.174 9.47152C150.971 8.76993 150.068 8.47371 150.068 7.41353C150.068 6.71194 150.52 5.87003 151.843 5.87003C152.822 5.87003 153.648 6.4391 153.961 7.27321L160.119 5.57381C159.4 2.49461 156.807 0.927734 152.317 0.927734C143.881 0.927734 143.215 6.68855 143.215 8.44252C143.215 12.0128 145.074 14.2033 149.105 15.3337C150.168 15.6299 151.384 15.9573 151.384 17.1422C151.384 18.0855 150.696 18.6857 149.502 18.6857C148.416 18.6857 147.246 18.0387 146.848 16.9006L140.775 18.5766C141.441 21.8195 144.439 23.6592 149.128 23.6592C152.707 23.6592 158.704 22.6848 158.704 16.0898C158.742 12.7924 156.914 10.633 153.174 9.47152Z" fill="#999999"/>
<path d="M8.2944 23.2314L12.0652 1.41199H0.523438V23.2314H8.2944ZM183.73 1.41199L179.99 23.2314H191.532V1.41199H183.73Z" fill="#999999"/>
<path d="M68.0297 16.7991H73.8886L74.8446 11.3111H68.9858L69.6512 7.25753H77.8505L78.8601 1.38757H63.6777L59.9375 23.2304H66.913L68.0297 16.7991ZM86.3022 16.7991H92.1917L93.1478 11.3111H87.2889L87.9543 7.25753H96.1537L97.1633 1.38757H81.9808L78.2406 23.2304H85.2162L86.3022 16.7991Z" fill="#999999"/>
</g>
<defs>
<clipPath id="clip0_1113_10708">
<rect width="191.008" height="22.7626" fill="white" transform="translate(0.523438 0.927734)"/>
</clipPath>
</defs>
</svg>
 