<svg height="33" viewBox="0 0 162 33" fill="none" xmlns="http://www.w3.org/2000/svg">
<path d="M0.23875 22.4526L2.27781 22.13V3.29461L0 2.99779L0.116149 0.95874H14.3637L14.0088 6.66291L11.1696 6.57257L10.9954 2.99779H6.59467V11.4831H8.51758L8.96282 9.53435L10.9438 9.59243V15.445H8.96282L8.49177 13.4318H6.56886V22.4204H11.0019L11.4149 18.5165L14.4025 18.6068L14.6412 24.5497H0.148412L0.23875 22.4526ZM15.9576 24.582L16.0479 22.8398L17.6417 22.5172V10.6249L15.7769 10.4442V8.66969L20.4487 7.99216L20.8036 8.99878V9.67631C21.9263 8.49547 23.2878 7.78568 25.0301 7.78568C27.5724 7.78568 29.4631 9.32142 29.4631 12.3671V22.4784L31.1473 22.8011L31.0569 24.5433H25.5011V13.2511C25.5011 11.625 24.9075 10.7087 23.4298 10.7087C22.9265 10.7087 22.5716 10.7991 22.1909 10.9475C21.9521 11.154 21.7198 11.4508 21.5133 11.7154V22.5365L23.1975 22.8591L23.0814 24.6014H15.9576V24.582ZM105.25 24.582L105.308 22.8398L106.902 22.5172V10.6249L105.037 10.4442V8.66969L109.709 7.99216L110.064 8.99878V9.67631C111.187 8.49547 112.548 7.78568 114.29 7.78568C116.833 7.78568 118.723 9.32142 118.723 12.3671V22.4784L120.408 22.8011L120.317 24.5433H114.794V13.2511C114.794 11.625 114.2 10.7087 112.722 10.7087C112.219 10.7087 111.864 10.7991 111.484 10.9475C111.245 11.154 111.012 11.4508 110.806 11.7154V22.5365L112.49 22.8591L112.374 24.6014H105.25V24.582ZM39.9617 24.2594C39.3099 24.5239 38.1614 24.8208 36.6514 24.8208C34.6704 24.8208 32.8379 23.9367 32.8379 21.033V10.6249L30.9472 10.328L31.0376 8.25672L33.167 8.16639L34.0832 5.00457L36.7998 4.88842V8.28899H39.7229L39.5164 10.3603L36.8256 10.6571V21.0653C36.8256 21.9235 37.2967 22.4849 38.1872 22.4849H39.781L39.9617 24.2594ZM150.587 24.582L150.645 22.8656L152.155 22.5107V10.6249L150.381 10.4442V8.66969L155.227 7.99216L155.549 9.14719V9.53435C156.82 8.58581 158.537 7.96635 160.602 7.96635L161.311 8.58581L160.808 13.0833L158.15 12.993L157.885 10.599C157.266 10.6894 156.672 10.8636 156.169 11.2185V22.543L157.853 22.8979L157.737 24.6143H150.587V24.582ZM80.9816 24.582L81.0719 22.8656L82.5818 22.5107V10.6249L80.8074 10.4442V8.66969L85.6533 7.99216L85.976 9.14719V9.53435C87.2472 8.58581 88.9636 7.96635 91.0284 7.96635L91.7382 8.58581L91.1769 13.0833L88.5183 12.993L88.2538 10.599C87.6343 10.6894 87.0407 10.8636 86.5374 11.2185V22.543L88.2215 22.8979L88.1054 24.6143H80.9816V24.582ZM41.1425 24.582L41.2328 22.8656L42.7428 22.5107V10.6249L40.9683 10.4442V8.66969L45.8143 7.99216L46.1369 9.14719V9.53435C47.4081 8.58581 49.1245 7.96635 51.1636 7.96635L51.8734 8.58581L51.3701 13.0833L48.7115 12.993L48.447 10.599C47.8275 10.6894 47.2339 10.8636 46.7306 11.2185V22.543L48.4147 22.8979L48.2986 24.6143H41.1425V24.582ZM56.4548 17.3421C56.4548 20.1813 57.6937 22.3687 60.1522 22.3687C61.4234 22.3687 62.43 22.1042 63.6109 21.5428L64.2884 23.1108C63.0753 24.0852 61.3008 24.8272 59.0875 24.8272C54.7706 24.8272 52.2928 21.104 52.2928 16.3097C52.2928 12.2316 54.0931 7.76632 59.0294 7.76632C63.3463 7.76632 64.9724 11.7605 64.9724 16.1935L64.5594 17.2582L56.4548 17.3421ZM56.3903 15.445L61.3589 15.2063C61.2685 13.2253 60.8556 10.0893 58.9068 10.0893C58.4358 10.0893 58.1067 10.1796 57.5195 10.4764C56.7194 11.838 56.3903 14.2964 56.3903 15.445ZM125.144 17.3421C125.144 20.1813 126.383 22.3687 128.841 22.3687C130.113 22.3687 131.119 22.1042 132.3 21.5428L132.978 23.1108C131.764 24.0852 129.99 24.8272 127.777 24.8272C123.46 24.8272 120.982 21.104 120.982 16.3097C120.982 12.2316 122.782 7.76632 127.719 7.76632C132.035 7.76632 133.662 11.7605 133.662 16.1935L133.249 17.2582L125.144 17.3421ZM125.079 15.445L130.048 15.2063C129.958 13.2253 129.545 10.0893 127.596 10.0893C127.125 10.0893 126.796 10.1796 126.209 10.4764C125.409 11.838 125.079 14.2964 125.079 15.445ZM96.2939 17.3421C96.2939 20.1813 97.5328 22.3687 99.9913 22.3687C101.262 22.3687 102.269 22.1042 103.45 21.5428L104.127 23.1108C102.914 24.0852 101.14 24.8272 98.9266 24.8272C94.6097 24.8272 92.1319 21.104 92.1319 16.3097C92.1319 12.2316 93.9322 7.76632 98.8685 7.76632C103.185 7.76632 104.811 11.7605 104.811 16.1935L104.398 17.2582L96.2939 17.3421ZM96.2358 15.445L101.204 15.2063C101.114 13.2253 100.701 10.0893 98.7523 10.0893C98.2813 10.0893 97.9522 10.1796 97.365 10.4764C96.5584 11.838 96.2035 14.2964 96.2358 15.445ZM144.825 24.582L144.412 23.1624C143.321 24.1948 142.257 24.8208 140.598 24.8208C138.056 24.8208 135.778 23.5496 135.778 20.0329V10.2119L133.913 10.0312V8.46321L139.295 7.84375L139.708 9.26334V19.5554C139.708 21.3621 140.443 22.3042 141.895 22.3042C142.308 22.3042 142.844 22.2461 143.315 22.0655C143.592 21.788 143.837 21.4783 144.05 21.1492V10.2119L142.128 10.0377V8.46966L147.567 7.8502L147.98 9.26979V22.5172L149.664 22.8398L149.458 24.582H144.825ZM73.0318 22.4526C72.1736 22.4526 71.4961 22.3042 70.9605 22.0074V11.5734C71.1992 11.2185 71.4638 10.8959 71.7284 10.599C72.2317 10.4184 72.6769 10.3603 73.206 10.3603C75.4258 10.3603 75.8065 12.6058 75.8065 16.6259C75.8065 20.4975 75.2128 21.5622 75.0709 22.0074C74.4514 22.3107 73.7997 22.4526 73.0318 22.4526ZM79.6523 15.9225C79.6523 10.9281 78.1746 7.79213 74.4772 7.79213C72.0252 7.79213 70.8702 9.21172 70.3991 9.80537V9.24398L69.9861 7.82439L65.166 8.50193V10.2183L67.0308 10.4571V30.6217L65.437 30.9444L65.3466 32.6285H72.4704L72.5866 30.9444L70.9024 30.6217V24.2336C71.58 24.6207 72.5285 24.853 73.5609 24.853C79.5942 24.853 79.6523 18.7294 79.6523 15.9225Z" fill="#999999"/>
</svg>
