<svg height="28" viewBox="0 0 87 28" fill="none" xmlns="http://www.w3.org/2000/svg">
<path fill-rule="evenodd" clip-rule="evenodd" d="M24.5672 27.711H15.9018L0.897949 0H14.3833L20.3667 11.7738L26.5314 0H37.2479C32.7868 2.71557 29.7498 7.7905 29.7498 13.4936C29.7498 14.8533 29.9273 16.2091 30.1955 17.4769L24.5672 27.711ZM61.5442 27.711H51.8967C57.0755 25.1755 60.7396 19.7405 60.7396 13.4936C60.7396 7.95136 57.8537 2.81898 53.147 0H63.8673L67.4407 4.71107L71.0141 0H86.1993L74.4969 13.1335L87.0001 27.7149H72.1738L67.1725 21.3722L61.5442 27.711Z" fill="#999999"/>
<path fill-rule="evenodd" clip-rule="evenodd" d="M39.3071 13.5854C39.3071 10.414 41.8984 7.79041 45.0223 7.79041C48.2369 7.79041 50.7375 10.4179 50.7375 13.5854C50.7375 16.8448 48.2369 19.3804 45.0223 19.3804C41.8946 19.3804 39.3071 16.8448 39.3071 13.5854Z" fill="#999999"/>
</svg>
